Sri Lakshmi - DA Portfolio - R Coding Exercise
…
total_missing_infant_mortality <- sum(is.na(africadata$infant_mortality))
print(paste("Total missing values for infant mortality:", total_missing_infant_mortality))

[1] "Total missing values for infant mortality: 226"

Print years with missing data

print("Years with missing data for infant mortality:")

[1] "Years with missing data for infant mortality:"

print(missing_data_by_year)

# A tibble: 57 × 2
    year missing_infant_mortality
   <int>                    <int>
 1  1960                       10
 2  1961                       17
 3  1962                       16
 4  1963                       16
 5  1964                       15
 6  1965                       14
 7  1966                       13
 8  1967                       11
 9  1968                       11
10  1969                        7
# ℹ 47 more rows
…
